…
Changes were effected!

**Checking for incorrectly entered or Misspelled values**

Following my **Detect-Expose-Fix** model, I want to get distinct values
of entries in columns with categorical data. This will help bring
incorrectly entered or mis-spelled values to the fore. The columns are
the

``` r
unique(employee_profile_renamed)
```

    ## # A tibble: 11,991 × 10
    ##    satisfa…¹ last_…² num_o…³ mean_…⁴ tenure Work_…⁵  left promo…⁶ depar…⁷ salary
    ##        <dbl>   <dbl>   <dbl>   <dbl>  <dbl>   <dbl> <dbl>   <dbl> <chr>   <chr> 
    ##  1      0.38    0.53       2     157      3       0     1       0 sales   low   
    ##  2      0.8     0.86       5     262      6       0     1       0 sales   medium
    ##  3      0.11    0.88       7     272      4       0     1       0 sales   medium
    ##  4      0.72    0.87       5     223      5       0     1       0 sales   low   
    ##  5      0.37    0.52       2     159      3       0     1       0 sales   low   
    ##  6      0.41    0.5        2     153      3       0     1       0 sales   low   
    ##  7      0.1     0.77       6     247      4       0     1       0 sales   low   
    ##  8      0.92    0.85       5     259      5       0     1       0 sales   low   
    ##  9      0.89    1          5     224      5       0     1       0 sales   low   
    ## 10      0.42    0.53       2     142      3       0     1       0 sales   low   
    ## # … with 11,981 more rows, and abbreviated variable names ¹​satisfaction_level,
    ## #   ²​last_evaluation, ³​num_of_projects, ⁴​mean_monthly_hours, ⁵​Work_accident,
    ## #   ⁶​promoted_last_5years, ⁷​department
    ## # ℹ Use `print(n = ...)` to see more rows
…
